…
create some random number using normal distribution syntax rnorm

create some random number using uniform distribution syntax runif

create new variable with the summation of both number

create in data table form with tibble and save in azmi_data

azmi_data <- tibble(x = rnorm(50, 5, 2),
               y = runif(50, 0, 10),
               z = x+y)
azmi_data

## # A tibble: 50 x 3
##        x     y     z
##    <dbl> <dbl> <dbl>
##  1  5.03  7.01 12.0 
##  2  2.75  4.27  7.02
##  3  2.81  1.83  4.65
##  4  3.53  5.67  9.20
##  5  7.75  1.41  9.16
##  6  4.61  1.06  5.68
##  7  5.96  1.32  7.28
##  8  5.31  5.60 10.9 
##  9  5.08  2.98  8.06
## 10  1.16  7.56  8.72
## # ... with 40 more rows
…
